\relax 
\providecommand\hyper@newdestlabel[2]{}
\@writefile{toc}{\contentsline {chapter}{\numberline {2}Enabling Technologies}{7}{chapter.21}}
\@writefile{lof}{\addvspace {10\p@ }}
\@writefile{lot}{\addvspace {10\p@ }}
\newlabel{chap:enabling_technologies}{{2}{7}{Enabling Technologies}{chapter.21}{}}
\citation{iglesias2011combining}
\citation{daniel2009hosted}
\@writefile{toc}{\contentsline {section}{\numberline {2.1}Overview}{9}{section.22}}
\citation{limon}
\@writefile{toc}{\contentsline {section}{\numberline {2.2}OMELETTE mash-up Registry}{10}{section.23}}
\newlabel{sec:enableomr}{{2.2}{10}{OMELETTE mash-up Registry}{section.23}{}}
\@writefile{toc}{\contentsline {subsection}{\numberline {2.2.1}RDF model}{10}{subsection.24}}
\newlabel{subsec:rdfmodel}{{2.2.1}{10}{RDF model}{subsection.24}{}}
\citation{soa4all}
\@writefile{lof}{\contentsline {figure}{\numberline {2.1}{\ignorespaces Omelette mash-up Registry RDF model\relax }}{11}{figure.caption.25}}
\newlabel{fig:omeletterdfmodel}{{2.1}{11}{Omelette mash-up Registry RDF model\relax }{figure.caption.25}{}}
\@writefile{lol}{\contentsline {lstlisting}{\numberline {2.1}Example SPARQL}{12}{lstlisting.30}}
\@writefile{lol}{\contentsline {lstlisting}{\numberline {2.2}Example SPARQL keywords}{12}{lstlisting.42}}
\@writefile{toc}{\contentsline {section}{\numberline {2.3}Automated Discovery}{13}{section.59}}
\newlabel{sec:enableautomated}{{2.3}{13}{Automated Discovery}{section.59}{}}
\@writefile{toc}{\contentsline {subsection}{\numberline {2.3.1}Introduction}{13}{subsection.60}}
\@writefile{lof}{\contentsline {figure}{\numberline {2.2}{\ignorespaces ProgrammableWeb\relax }}{14}{figure.caption.64}}
\newlabel{fig:programmableweb}{{2.2}{14}{ProgrammableWeb\relax }{figure.caption.64}{}}
\@writefile{lof}{\contentsline {figure}{\numberline {2.3}{\ignorespaces Yahoo Pipes\relax }}{15}{figure.caption.65}}
\newlabel{fig:yahopipes}{{2.3}{15}{Yahoo Pipes\relax }{figure.caption.65}{}}
\@writefile{lof}{\contentsline {figure}{\numberline {2.4}{\ignorespaces Opera Widgets\relax }}{16}{figure.caption.66}}
\newlabel{fig:operawidgets}{{2.4}{16}{Opera Widgets\relax }{figure.caption.66}{}}
\citation{fernandez2011semantic}
\citation{scont11}
\citation{scr11}
\@writefile{toc}{\contentsline {subsection}{\numberline {2.3.2}Discovery techniques}{17}{subsection.67}}
\newlabel{subsec:limonontology}{{2.3.2}{17}{Discovery techniques}{subsection.67}{}}
\@writefile{lof}{\contentsline {figure}{\numberline {2.5}{\ignorespaces Mapping example for data extraction\relax }}{17}{figure.caption.68}}
\newlabel{fig:mappingexample1}{{2.5}{17}{Mapping example for data extraction\relax }{figure.caption.68}{}}
\@writefile{lof}{\contentsline {figure}{\numberline {2.6}{\ignorespaces Mapping example for data extraction\relax }}{18}{figure.caption.69}}
\newlabel{fig:mappingexample2}{{2.6}{18}{Mapping example for data extraction\relax }{figure.caption.69}{}}
\@writefile{lof}{\contentsline {figure}{\numberline {2.7}{\ignorespaces Execution page of a Yahoo Pipe's mash-up\relax }}{19}{figure.caption.71}}
\newlabel{fig:yahoopipesmash-up}{{2.7}{19}{Execution page of a Yahoo Pipe's mash-up\relax }{figure.caption.71}{}}
\@writefile{lol}{\contentsline {lstlisting}{\numberline {2.3}Example ROSM definition}{19}{lstlisting.72}}
\@writefile{toc}{\contentsline {section}{\numberline {2.4}Conclusions}{20}{section.92}}
\@setckpt{2-enablingtechnologies}{
\setcounter{page}{21}
\setcounter{equation}{0}
\setcounter{enumi}{0}
\setcounter{enumii}{0}
\setcounter{enumiii}{0}
\setcounter{enumiv}{0}
\setcounter{footnote}{8}
\setcounter{mpfootnote}{0}
\setcounter{part}{0}
\setcounter{chapter}{2}
\setcounter{section}{4}
\setcounter{subsection}{0}
\setcounter{subsubsection}{0}
\setcounter{paragraph}{0}
\setcounter{subparagraph}{0}
\setcounter{figure}{7}
\setcounter{table}{0}
\setcounter{parentequation}{0}
\setcounter{cor}{0}
\setcounter{thm}{0}
\setcounter{ContinuedFloat}{0}
\setcounter{KVtest}{0}
\setcounter{subfigure}{0}
\setcounter{subfigure@save}{0}
\setcounter{lofdepth}{1}
\setcounter{subtable}{0}
\setcounter{subtable@save}{0}
\setcounter{lotdepth}{1}
\setcounter{lstnumber}{20}
\setcounter{Item}{0}
\setcounter{Hfootnote}{9}
\setcounter{bookmark@seq@number}{19}
\setcounter{lstlisting}{3}
\setcounter{section@level}{0}
}
