\relax 
\providecommand\hyper@newdestlabel[2]{}
\@writefile{toc}{\contentsline {chapter}{\numberline {6}Conclusions and future lines}{91}{chapter.446}}
\@writefile{lof}{\addvspace {10\p@ }}
\@writefile{lot}{\addvspace {10\p@ }}
\newlabel{chap:conclusions}{{6}{91}{Conclusions and future lines}{chapter.446}{}}
\@writefile{toc}{\contentsline {section}{\numberline {6.1}Conclusions}{93}{section.447}}
\@writefile{toc}{\contentsline {section}{\numberline {6.2}Achieved goals}{93}{section.448}}
\@writefile{toc}{\contentsline {section}{\numberline {6.3}Future work}{94}{section.450}}
\@setckpt{6-conclusions}{
\setcounter{page}{96}
\setcounter{equation}{0}
\setcounter{enumi}{0}
\setcounter{enumii}{0}
\setcounter{enumiii}{0}
\setcounter{enumiv}{0}
\setcounter{footnote}{2}
\setcounter{mpfootnote}{0}
\setcounter{part}{0}
\setcounter{chapter}{6}
\setcounter{section}{3}
\setcounter{subsection}{0}
\setcounter{subsubsection}{0}
\setcounter{paragraph}{0}
\setcounter{subparagraph}{0}
\setcounter{figure}{0}
\setcounter{table}{0}
\setcounter{parentequation}{0}
\setcounter{cor}{0}
\setcounter{thm}{0}
\setcounter{ContinuedFloat}{0}
\setcounter{KVtest}{0}
\setcounter{subfigure}{0}
\setcounter{subfigure@save}{2}
\setcounter{lofdepth}{1}
\setcounter{subtable}{0}
\setcounter{subtable@save}{0}
\setcounter{lotdepth}{1}
\setcounter{lstnumber}{2}
\setcounter{Item}{0}
\setcounter{Hfootnote}{29}
\setcounter{bookmark@seq@number}{85}
\setcounter{lstlisting}{0}
\setcounter{section@level}{0}
}
